{
  "Servers": [
    {
      "Name": "GMail",
      "Smtp": "smtp.gmail.com",
      "Port": 465,
      "Security": 1
    },
    {
      "Name": "Outlook",
      "Smtp": "smtp.office365.com",
      "Port": 587,
      "Security": 1
    },
    {
      "Name": "Walla",
      "Smtp": "out.walla.co.il",
      "Port": 587,
      "Security": 1
    },
    {
      "Name": "Bezeqint",
      "Smtp": "out.bezeqint.net",
      "Port": 25,
      "Security": 0
    },
    {
      "Name": "Yahoo",
      "Smtp": "smtp.mail.yahoo.com",
      "Port": 465,
      "Security": 2
    }
  ]
}
