{
  "Activation": "https://mllicenseapi.herokuapp.com/",
  "BugReport": "http://monthlog.eu5.net/",
  "UserGuide": "https://monthlog.gitlab.io/guide/",
  "InAppUserGuide": "https://gitlab.com/monthlog/ml2appguide/raw/master/"
}
