[
{"Current": "2.0.0.0",
    "Details": [
        {"Released": "15/11/20"},
        {"Info": "https://gitlab.com/monthlog/ml2appguide/raw/master/release/v2000.html"},
        {"Files": "https://gitlab.com/monthlog/ml2appguide/raw/master/release/v2000_files.html"},
        {"Mandatory": "false"},
        {"Breaking": "false"}
    ]}
]
